// Jest Snapshot v1, https://goo.gl/fbAQLP

exports[`accordion cleanup should restore original HTML 1`] = `
"
            <div class=\\"wrapper\\">
                <section id=\\"section-1\\" class=\\"\\">
                    <h1>Section 1</h1>
                    
                
            <div>Section 1 content</div></section>        
                <section id=\\"section-2\\" class=\\"\\">
                    <h1>Section 2</h1>
                    
                
            <div>Section 2 content</div></section>        
                <section id=\\"section-3\\" class=\\"\\">
                    <h1>Section 3</h1>
                    
                
            <div>Section 3 content</div></section>        
            </div>"
`;

exports[`accordion initialization should initialize custom HTML 1`] = `
"
            <div class=\\"wrapper accordion-custom\\">
                <section id=\\"section-1\\" class=\\"accordion-custom__panel\\">
                    <h1><button class=\\"accordion-custom__trigger\\" id=\\"accordion-trigger--section-1\\" aria-controls=\\"accordion-content--section-1\\" aria-expanded=\\"true\\" type=\\"button\\">Section 1</button></h1>
                    
                
            <div class=\\"accordion-custom__content is-open-custom\\" id=\\"accordion-content--section-1\\" aria-labelledby=\\"accordion-trigger--section-1\\" aria-hidden=\\"false\\" role=\\"region\\"><div>Section 1 content</div></div></section>        
                <section id=\\"section-2\\" class=\\"accordion-custom__panel\\">
                    <h1><button class=\\"accordion-custom__trigger\\" id=\\"accordion-trigger--section-2\\" aria-controls=\\"accordion-content--section-2\\" aria-expanded=\\"false\\" type=\\"button\\">Section 2</button></h1>
                    
                
            <div class=\\"accordion-custom__content\\" id=\\"accordion-content--section-2\\" aria-labelledby=\\"accordion-trigger--section-2\\" aria-hidden=\\"true\\" role=\\"region\\"><div>Section 2 content</div></div></section>        
                <section id=\\"section-3\\" class=\\"accordion-custom__panel\\">
                    <h1><button class=\\"accordion-custom__trigger\\" id=\\"accordion-trigger--section-3\\" aria-controls=\\"accordion-content--section-3\\" aria-expanded=\\"false\\" type=\\"button\\">Section 3</button></h1>
                    
                
            <div class=\\"accordion-custom__content\\" id=\\"accordion-content--section-3\\" aria-labelledby=\\"accordion-trigger--section-3\\" aria-hidden=\\"true\\" role=\\"region\\"><div>Section 3 content</div></div></section>        
            </div>"
`;

exports[`accordion initialization should initialize default HTML 1`] = `
"
            <div class=\\"wrapper accordion\\">
                <section id=\\"section-1\\" class=\\"accordion__panel\\">
                    <h1><button class=\\"accordion__trigger\\" id=\\"accordion-trigger--section-1\\" aria-controls=\\"accordion-content--section-1\\" aria-expanded=\\"true\\" type=\\"button\\">Section 1</button></h1>
                    
                
            <div class=\\"accordion__content is-open\\" id=\\"accordion-content--section-1\\" aria-labelledby=\\"accordion-trigger--section-1\\" aria-hidden=\\"false\\" role=\\"region\\"><div>Section 1 content</div></div></section>        
                <section id=\\"section-2\\" class=\\"accordion__panel\\">
                    <h1><button class=\\"accordion__trigger\\" id=\\"accordion-trigger--section-2\\" aria-controls=\\"accordion-content--section-2\\" aria-expanded=\\"false\\" type=\\"button\\">Section 2</button></h1>
                    
                
            <div class=\\"accordion__content\\" id=\\"accordion-content--section-2\\" aria-labelledby=\\"accordion-trigger--section-2\\" aria-hidden=\\"true\\" role=\\"region\\"><div>Section 2 content</div></div></section>        
                <section id=\\"section-3\\" class=\\"accordion__panel\\">
                    <h1><button class=\\"accordion__trigger\\" id=\\"accordion-trigger--section-3\\" aria-controls=\\"accordion-content--section-3\\" aria-expanded=\\"false\\" type=\\"button\\">Section 3</button></h1>
                    
                
            <div class=\\"accordion__content\\" id=\\"accordion-content--section-3\\" aria-labelledby=\\"accordion-trigger--section-3\\" aria-hidden=\\"true\\" role=\\"region\\"><div>Section 3 content</div></div></section>        
            </div>"
`;
