{
    "sections": [
        {"id": "section-1", "title": "Section 1", "content": "Section 1 content"},
        {"id": "section-2", "title": "Section 2", "content": "Section 2 content"},
        {"id": "section-3", "title": "Section 3", "content": "Section 3 content"}
    ]
}